[{"line":1,"elements":[{"line":14,"name":"Data driven testing test case Test Case 1","description":"","id":"data-driven-testing-test-case-test-case-1","type":"scenario","keyword":"Scenario Outline","steps":[{"name":"url \"https:\/\/reqres.in\"","result":{"duration":5470767,"status":"passed"},"match":{"location":"karate","arguments":[]},"keyword":"Given","line":6,"doc_string":{"content_type":"","value":"16:43:02.747 skipping bootstrap configuration: could not find or read file: classpath:karate-config.js","line":6}},{"name":"path \"\/api\/users?page=1\"","result":{"duration":4059445,"status":"passed"},"match":{"location":"karate","arguments":[]},"keyword":"And","line":7},{"name":"method GET","result":{"duration":1196782896,"status":"passed"},"match":{"location":"karate","arguments":[]},"keyword":"When","line":8,"doc_string":{"content_type":"","value":"16:43:03.403 request:\n1 > GET https:\/\/reqres.in\/api\/users%3Fpage=1\n1 > Accept-Encoding: gzip,deflate\n1 > Connection: Keep-Alive\n1 > Host: reqres.in\n1 > User-Agent: Apache-HttpClient\/4.5.12 (Java\/1.8.0_251)\n\n16:43:03.919 response time in milliseconds: 508.81\n1 < 200\n1 < Age: 23\n1 < CF-Cache-Status: HIT\n1 < CF-RAY: 5fb4aac38853dd8b-SIN\n1 < Cache-Control: max-age=14400\n1 < Connection: keep-alive\n1 < Content-Type: application\/json; charset=utf-8\n1 < Date: Wed, 02 Dec 2020 11:21:54 GMT\n1 < Expect-CT: max-age=604800, report-uri=\"https:\/\/report-uri.cloudflare.com\/cdn-cgi\/beacon\/expect-ct\"\n1 < NEL: {\"report_to\":\"cf-nel\",\"max_age\":604800}\n1 < Report-To: {\"endpoints\":[{\"url\":\"https:\\\/\\\/a.nel.cloudflare.com\\\/report?s=2bAj3UxHRKk3tt%2Fo%2BdJ7I1lQS17FrMklKs8cC5Fl6QjlTkQDnxTrMtjBO9B3nQmUSgL6SOvP0S%2BdGDWGGvidjo2mxEUDqLqKtX8%3D\"}],\"group\":\"cf-nel\",\"max_age\":604800}\n1 < Server: cloudflare\n1 < Set-Cookie: __cfduid=dcfba8a751a34aacf78342f2fe423f1be1606908114; expires=Fri, 01-Jan-21 11:21:54 GMT; path=\/; domain=.reqres.in; HttpOnly; SameSite=Lax; Secure\n1 < Transfer-Encoding: chunked\n1 < Vary: Accept-Encoding\n1 < access-control-allow-origin: *\n1 < cf-request-id: 06c4c90e350000dd8be0915000000001\n1 < etag: W\/\"2c1-N6Rqerxquq2kgQhL51EiSg4x0R8\"\n1 < via: 1.1 vegur\n1 < x-powered-by: Express\n{\"page\":1,\"per_page\":6,\"total\":12,\"total_pages\":2,\"data\":[{\"id\":1,\"name\":\"cerulean\",\"year\":2000,\"color\":\"#98B2D1\",\"pantone_value\":\"15-4020\"},{\"id\":2,\"name\":\"fuchsia rose\",\"year\":2001,\"color\":\"#C74375\",\"pantone_value\":\"17-2031\"},{\"id\":3,\"name\":\"true red\",\"year\":2002,\"color\":\"#BF1932\",\"pantone_value\":\"19-1664\"},{\"id\":4,\"name\":\"aqua sky\",\"year\":2003,\"color\":\"#7BC4C4\",\"pantone_value\":\"14-4811\"},{\"id\":5,\"name\":\"tigerlily\",\"year\":2004,\"color\":\"#E2583E\",\"pantone_value\":\"17-1456\"},{\"id\":6,\"name\":\"blue turquoise\",\"year\":2005,\"color\":\"#53B0AE\",\"pantone_value\":\"15-5217\"}],\"support\":{\"url\":\"https:\/\/reqres.in\/#support-heading\",\"text\":\"To keep ReqRes free, contributions towards server costs are appreciated!\"}}","line":8}},{"name":"status 200","result":{"duration":18699,"status":"passed"},"match":{"location":"karate","arguments":[]},"keyword":"Then","line":9},{"name":"match response.page == \"##\"","result":{"duration":24049027,"status":"passed"},"match":{"location":"karate","arguments":[]},"keyword":"And","line":10}],"tags":[{"name":"@ddt","line":4}]},{"line":15,"name":"Data driven testing test case Test Case 1","description":"","id":"data-driven-testing-test-case-test-case-1","type":"scenario","keyword":"Scenario Outline","steps":[{"name":"url \"https:\/\/reqres.in\"","result":{"duration":320553,"status":"passed"},"match":{"location":"karate","arguments":[]},"keyword":"Given","line":6,"doc_string":{"content_type":"","value":"16:43:04.028 skipping bootstrap configuration: could not find or read file: classpath:karate-config.js","line":6}},{"name":"path \"\/api\/users?page=2\"","result":{"duration":8385572,"status":"passed"},"match":{"location":"karate","arguments":[]},"keyword":"And","line":7},{"name":"method GET","result":{"duration":168315584,"status":"passed"},"match":{"location":"karate","arguments":[]},"keyword":"When","line":8,"doc_string":{"content_type":"","value":"16:43:04.044 request:\n1 > GET https:\/\/reqres.in\/api\/users%3Fpage=2\n1 > Accept-Encoding: gzip,deflate\n1 > Connection: Keep-Alive\n1 > Host: reqres.in\n1 > User-Agent: Apache-HttpClient\/4.5.12 (Java\/1.8.0_251)\n\n16:43:04.200 response time in milliseconds: 153.05\n1 < 200\n1 < Access-Control-Allow-Origin: *\n1 < Age: 2352\n1 < CF-Cache-Status: HIT\n1 < CF-RAY: 5fb4aac578ebe25f-SIN\n1 < Cache-Control: max-age=14400\n1 < Connection: keep-alive\n1 < Content-Type: application\/json; charset=utf-8\n1 < Date: Wed, 02 Dec 2020 11:21:54 GMT\n1 < Etag: W\/\"2c1-N6Rqerxquq2kgQhL51EiSg4x0R8\"\n1 < Expect-CT: max-age=604800, report-uri=\"https:\/\/report-uri.cloudflare.com\/cdn-cgi\/beacon\/expect-ct\"\n1 < NEL: {\"report_to\":\"cf-nel\",\"max_age\":604800}\n1 < Report-To: {\"endpoints\":[{\"url\":\"https:\\\/\\\/a.nel.cloudflare.com\\\/report?s=u2ma%2FznJ4UZEj5xqkMDVytv2GJSRKLNfz84u9bNksm09%2F1XWNN9pEcy54P1E%2BW8zSVjL06whru1zu8bqeV1io6pyLB%2BXxvVwb0s%3D\"}],\"group\":\"cf-nel\",\"max_age\":604800}\n1 < Server: cloudflare\n1 < Set-Cookie: __cfduid=ddfb4540cca6b999110cd6162b0dc31b51606908114; expires=Fri, 01-Jan-21 11:21:54 GMT; path=\/; domain=.reqres.in; HttpOnly; SameSite=Lax; Secure\n1 < Transfer-Encoding: chunked\n1 < Vary: Accept-Encoding\n1 < Via: 1.1 vegur\n1 < X-Powered-By: Express\n1 < cf-request-id: 06c4c90f6a0000e25f0713e000000001\n{\"page\":1,\"per_page\":6,\"total\":12,\"total_pages\":2,\"data\":[{\"id\":1,\"name\":\"cerulean\",\"year\":2000,\"color\":\"#98B2D1\",\"pantone_value\":\"15-4020\"},{\"id\":2,\"name\":\"fuchsia rose\",\"year\":2001,\"color\":\"#C74375\",\"pantone_value\":\"17-2031\"},{\"id\":3,\"name\":\"true red\",\"year\":2002,\"color\":\"#BF1932\",\"pantone_value\":\"19-1664\"},{\"id\":4,\"name\":\"aqua sky\",\"year\":2003,\"color\":\"#7BC4C4\",\"pantone_value\":\"14-4811\"},{\"id\":5,\"name\":\"tigerlily\",\"year\":2004,\"color\":\"#E2583E\",\"pantone_value\":\"17-1456\"},{\"id\":6,\"name\":\"blue turquoise\",\"year\":2005,\"color\":\"#53B0AE\",\"pantone_value\":\"15-5217\"}],\"support\":{\"url\":\"https:\/\/reqres.in\/#support-heading\",\"text\":\"To keep ReqRes free, contributions towards server costs are appreciated!\"}}","line":8}},{"name":"status 200","result":{"duration":12021,"status":"passed"},"match":{"location":"karate","arguments":[]},"keyword":"Then","line":9},{"name":"match response.page == \"##\"","result":{"duration":640661,"status":"passed"},"match":{"location":"karate","arguments":[]},"keyword":"And","line":10}],"tags":[{"name":"@ddt","line":4}]},{"line":16,"name":"Data driven testing test case Test Case 1","description":"","id":"data-driven-testing-test-case-test-case-1","type":"scenario","keyword":"Scenario Outline","steps":[{"name":"url \"https:\/\/reqres.in\"","result":{"duration":219045,"status":"passed"},"match":{"location":"karate","arguments":[]},"keyword":"Given","line":6,"doc_string":{"content_type":"","value":"16:43:04.216 skipping bootstrap configuration: could not find or read file: classpath:karate-config.js","line":6}},{"name":"path \"\/api\/users?page=3\"","result":{"duration":2916140,"status":"passed"},"match":{"location":"karate","arguments":[]},"keyword":"And","line":7},{"name":"method GET","result":{"duration":163046943,"status":"passed"},"match":{"location":"karate","arguments":[]},"keyword":"When","line":8,"doc_string":{"content_type":"","value":"16:43:04.216 request:\n1 > GET https:\/\/reqres.in\/api\/users%3Fpage=3\n1 > Accept-Encoding: gzip,deflate\n1 > Connection: Keep-Alive\n1 > Host: reqres.in\n1 > User-Agent: Apache-HttpClient\/4.5.12 (Java\/1.8.0_251)\n\n16:43:04.378 response time in milliseconds: 148.81\n1 < 200\n1 < Access-Control-Allow-Origin: *\n1 < Age: 948\n1 < CF-Cache-Status: HIT\n1 < CF-RAY: 5fb4aac68fca18a8-SIN\n1 < Cache-Control: max-age=14400\n1 < Connection: keep-alive\n1 < Content-Type: application\/json; charset=utf-8\n1 < Date: Wed, 02 Dec 2020 11:21:54 GMT\n1 < Etag: W\/\"2c1-N6Rqerxquq2kgQhL51EiSg4x0R8\"\n1 < Expect-CT: max-age=604800, report-uri=\"https:\/\/report-uri.cloudflare.com\/cdn-cgi\/beacon\/expect-ct\"\n1 < NEL: {\"report_to\":\"cf-nel\",\"max_age\":604800}\n1 < Report-To: {\"endpoints\":[{\"url\":\"https:\\\/\\\/a.nel.cloudflare.com\\\/report?s=EugPOKyrKtIml2%2FFwqF1wIMOD0R0hSwbB2GeDruHeOZ71y2iVCZMC56p77sp8rfJu4QO2eZuItoLM9rvBNNM1X7vpY2QUOQIOxg%3D\"}],\"group\":\"cf-nel\",\"max_age\":604800}\n1 < Server: cloudflare\n1 < Set-Cookie: __cfduid=d25cae7b94fc190747cb628887ba249341606908114; expires=Fri, 01-Jan-21 11:21:54 GMT; path=\/; domain=.reqres.in; HttpOnly; SameSite=Lax; Secure\n1 < Transfer-Encoding: chunked\n1 < Vary: Accept-Encoding\n1 < Via: 1.1 vegur\n1 < X-Powered-By: Express\n1 < cf-request-id: 06c4c91012000018a8db8be000000001\n{\"page\":1,\"per_page\":6,\"total\":12,\"total_pages\":2,\"data\":[{\"id\":1,\"name\":\"cerulean\",\"year\":2000,\"color\":\"#98B2D1\",\"pantone_value\":\"15-4020\"},{\"id\":2,\"name\":\"fuchsia rose\",\"year\":2001,\"color\":\"#C74375\",\"pantone_value\":\"17-2031\"},{\"id\":3,\"name\":\"true red\",\"year\":2002,\"color\":\"#BF1932\",\"pantone_value\":\"19-1664\"},{\"id\":4,\"name\":\"aqua sky\",\"year\":2003,\"color\":\"#7BC4C4\",\"pantone_value\":\"14-4811\"},{\"id\":5,\"name\":\"tigerlily\",\"year\":2004,\"color\":\"#E2583E\",\"pantone_value\":\"17-1456\"},{\"id\":6,\"name\":\"blue turquoise\",\"year\":2005,\"color\":\"#53B0AE\",\"pantone_value\":\"15-5217\"}],\"support\":{\"url\":\"https:\/\/reqres.in\/#support-heading\",\"text\":\"To keep ReqRes free, contributions towards server costs are appreciated!\"}}","line":8}},{"name":"status 200","result":{"duration":17809,"status":"passed"},"match":{"location":"karate","arguments":[]},"keyword":"Then","line":9},{"name":"match response.page == \"##\"","result":{"duration":803162,"status":"passed"},"match":{"location":"karate","arguments":[]},"keyword":"And","line":10}],"tags":[{"name":"@ddt","line":4}]},{"line":17,"name":"Data driven testing test case Test Case 1","description":"","id":"data-driven-testing-test-case-test-case-1","type":"scenario","keyword":"Scenario Outline","steps":[{"name":"url \"https:\/\/reqres.in\"","result":{"duration":256887,"status":"passed"},"match":{"location":"karate","arguments":[]},"keyword":"Given","line":6,"doc_string":{"content_type":"","value":"16:43:04.400 skipping bootstrap configuration: could not find or read file: classpath:karate-config.js","line":6}},{"name":"path \"\/api\/users?page=4\"","result":{"duration":3955265,"status":"passed"},"match":{"location":"karate","arguments":[]},"keyword":"And","line":7},{"name":"method GET","result":{"duration":192756397,"status":"passed"},"match":{"location":"karate","arguments":[]},"keyword":"When","line":8,"doc_string":{"content_type":"","value":"16:43:04.408 request:\n1 > GET https:\/\/reqres.in\/api\/users%3Fpage=4\n1 > Accept-Encoding: gzip,deflate\n1 > Connection: Keep-Alive\n1 > Host: reqres.in\n1 > User-Agent: Apache-HttpClient\/4.5.12 (Java\/1.8.0_251)\n\n16:43:04.597 response time in milliseconds: 186.68\n1 < 200\n1 < Access-Control-Allow-Origin: *\n1 < Age: 23\n1 < CF-Cache-Status: HIT\n1 < CF-RAY: 5fb4aac7dd5dc345-SIN\n1 < Cache-Control: max-age=14400\n1 < Connection: keep-alive\n1 < Content-Type: application\/json; charset=utf-8\n1 < Date: Wed, 02 Dec 2020 11:21:55 GMT\n1 < Etag: W\/\"2c1-N6Rqerxquq2kgQhL51EiSg4x0R8\"\n1 < Expect-CT: max-age=604800, report-uri=\"https:\/\/report-uri.cloudflare.com\/cdn-cgi\/beacon\/expect-ct\"\n1 < NEL: {\"report_to\":\"cf-nel\",\"max_age\":604800}\n1 < Report-To: {\"endpoints\":[{\"url\":\"https:\\\/\\\/a.nel.cloudflare.com\\\/report?s=vFo9So3ZtSmrTIqhhksK7chX9w5dmtPQpg85s%2FJYi6oaSTpDf38SjXKNf74%2FVpF90aRBuxsiCabtesUrU%2Bgt64HChYKVguxHv%2FE%3D\"}],\"group\":\"cf-nel\",\"max_age\":604800}\n1 < Server: cloudflare\n1 < Set-Cookie: __cfduid=ddbc0cfb18bea5edd5a56aefaa02a0cfa1606908115; expires=Fri, 01-Jan-21 11:21:55 GMT; path=\/; domain=.reqres.in; HttpOnly; SameSite=Lax; Secure\n1 < Transfer-Encoding: chunked\n1 < Vary: Accept-Encoding\n1 < Via: 1.1 vegur\n1 < X-Powered-By: Express\n1 < cf-request-id: 06c4c910e70000c3450f22a000000001\n{\"page\":1,\"per_page\":6,\"total\":12,\"total_pages\":2,\"data\":[{\"id\":1,\"name\":\"cerulean\",\"year\":2000,\"color\":\"#98B2D1\",\"pantone_value\":\"15-4020\"},{\"id\":2,\"name\":\"fuchsia rose\",\"year\":2001,\"color\":\"#C74375\",\"pantone_value\":\"17-2031\"},{\"id\":3,\"name\":\"true red\",\"year\":2002,\"color\":\"#BF1932\",\"pantone_value\":\"19-1664\"},{\"id\":4,\"name\":\"aqua sky\",\"year\":2003,\"color\":\"#7BC4C4\",\"pantone_value\":\"14-4811\"},{\"id\":5,\"name\":\"tigerlily\",\"year\":2004,\"color\":\"#E2583E\",\"pantone_value\":\"17-1456\"},{\"id\":6,\"name\":\"blue turquoise\",\"year\":2005,\"color\":\"#53B0AE\",\"pantone_value\":\"15-5217\"}],\"support\":{\"url\":\"https:\/\/reqres.in\/#support-heading\",\"text\":\"To keep ReqRes free, contributions towards server costs are appreciated!\"}}","line":8}},{"name":"status 200","result":{"duration":13356,"status":"passed"},"match":{"location":"karate","arguments":[]},"keyword":"Then","line":9},{"name":"match response.page == \"##\"","result":{"duration":773334,"status":"passed"},"match":{"location":"karate","arguments":[]},"keyword":"And","line":10}],"tags":[{"name":"@ddt","line":4}]},{"line":18,"name":"Data driven testing test case Test Case 1","description":"","id":"data-driven-testing-test-case-test-case-1","type":"scenario","keyword":"Scenario Outline","steps":[{"name":"url \"https:\/\/reqres.in\"","result":{"duration":362403,"status":"passed"},"match":{"location":"karate","arguments":[]},"keyword":"Given","line":6,"doc_string":{"content_type":"","value":"16:43:04.610 skipping bootstrap configuration: could not find or read file: classpath:karate-config.js","line":6}},{"name":"path \"\/api\/users?page=5\"","result":{"duration":4058109,"status":"passed"},"match":{"location":"karate","arguments":[]},"keyword":"And","line":7},{"name":"method GET","result":{"duration":151933111,"status":"passed"},"match":{"location":"karate","arguments":[]},"keyword":"When","line":8,"doc_string":{"content_type":"","value":"16:43:04.618 request:\n1 > GET https:\/\/reqres.in\/api\/users%3Fpage=5\n1 > Accept-Encoding: gzip,deflate\n1 > Connection: Keep-Alive\n1 > Host: reqres.in\n1 > User-Agent: Apache-HttpClient\/4.5.12 (Java\/1.8.0_251)\n\n16:43:04.767 response time in milliseconds: 148.12\n1 < 200\n1 < Access-Control-Allow-Origin: *\n1 < Age: 22\n1 < CF-Cache-Status: HIT\n1 < CF-RAY: 5fb4aac8ff43ddfd-SIN\n1 < Cache-Control: max-age=14400\n1 < Connection: keep-alive\n1 < Content-Type: application\/json; charset=utf-8\n1 < Date: Wed, 02 Dec 2020 11:21:55 GMT\n1 < Etag: W\/\"2c1-N6Rqerxquq2kgQhL51EiSg4x0R8\"\n1 < Expect-CT: max-age=604800, report-uri=\"https:\/\/report-uri.cloudflare.com\/cdn-cgi\/beacon\/expect-ct\"\n1 < NEL: {\"report_to\":\"cf-nel\",\"max_age\":604800}\n1 < Report-To: {\"endpoints\":[{\"url\":\"https:\\\/\\\/a.nel.cloudflare.com\\\/report?s=3jlx%2Fg8yYMDBvh62GZ7m5V7hQbz6BRr22lvbM1fbQ3rjMtTmp3AaLLmI9j94mRId1AAz9DK18npFktfpYAjo56PE3w%2BEaO8b5Ec%3D\"}],\"group\":\"cf-nel\",\"max_age\":604800}\n1 < Server: cloudflare\n1 < Set-Cookie: __cfduid=d2c2c8849cc4fa3201988d764d6b8d1ba1606908115; expires=Fri, 01-Jan-21 11:21:55 GMT; path=\/; domain=.reqres.in; HttpOnly; SameSite=Lax; Secure\n1 < Transfer-Encoding: chunked\n1 < Vary: Accept-Encoding\n1 < Via: 1.1 vegur\n1 < X-Powered-By: Express\n1 < cf-request-id: 06c4c9119b0000ddfd0e8c5000000001\n{\"page\":1,\"per_page\":6,\"total\":12,\"total_pages\":2,\"data\":[{\"id\":1,\"name\":\"cerulean\",\"year\":2000,\"color\":\"#98B2D1\",\"pantone_value\":\"15-4020\"},{\"id\":2,\"name\":\"fuchsia rose\",\"year\":2001,\"color\":\"#C74375\",\"pantone_value\":\"17-2031\"},{\"id\":3,\"name\":\"true red\",\"year\":2002,\"color\":\"#BF1932\",\"pantone_value\":\"19-1664\"},{\"id\":4,\"name\":\"aqua sky\",\"year\":2003,\"color\":\"#7BC4C4\",\"pantone_value\":\"14-4811\"},{\"id\":5,\"name\":\"tigerlily\",\"year\":2004,\"color\":\"#E2583E\",\"pantone_value\":\"17-1456\"},{\"id\":6,\"name\":\"blue turquoise\",\"year\":2005,\"color\":\"#53B0AE\",\"pantone_value\":\"15-5217\"}],\"support\":{\"url\":\"https:\/\/reqres.in\/#support-heading\",\"text\":\"To keep ReqRes free, contributions towards server costs are appreciated!\"}}","line":8}},{"name":"status 200","result":{"duration":11130,"status":"passed"},"match":{"location":"karate","arguments":[]},"keyword":"Then","line":9},{"name":"match response.page == \"##\"","result":{"duration":671826,"status":"passed"},"match":{"location":"karate","arguments":[]},"keyword":"And","line":10}],"tags":[{"name":"@ddt","line":4}]}],"name":"src\/test\/java\/featurefiles\/karate10.feature","description":"Karate Test Suite 10\nREST API testing using data driven approach","id":"karate-test-suite-10","keyword":"Feature","uri":"src\/test\/java\/featurefiles\/karate10.feature"}]