[{"line":1,"elements":[{"line":11,"name":"URL & Path usage test case Test Case 2","description":"","id":"url-&-path-usage-test-case-test-case-2","type":"scenario","keyword":"Scenario","steps":[{"name":"url \"https:\/\/reqres.in\"","result":{"duration":4255338,"status":"passed"},"match":{"location":"karate","arguments":[]},"keyword":"Given","line":12,"doc_string":{"content_type":"","value":"16:36:13.937 skipping bootstrap configuration: could not find or read file: classpath:karate-config.js","line":12}},{"name":"path \"\/api\/users\"","result":{"duration":3454401,"status":"passed"},"match":{"location":"karate","arguments":[]},"keyword":"And","line":13},{"name":"param page = 2","result":{"duration":4679626,"status":"passed"},"match":{"location":"karate","arguments":[]},"keyword":"And","line":14},{"name":"method GET","result":{"duration":1345316813,"status":"passed"},"match":{"location":"karate","arguments":[]},"keyword":"When","line":15,"doc_string":{"content_type":"","value":"16:36:14.687 request:\n1 > GET https:\/\/reqres.in\/api\/users?page=2\n1 > Accept-Encoding: gzip,deflate\n1 > Connection: Keep-Alive\n1 > Host: reqres.in\n1 > User-Agent: Apache-HttpClient\/4.5.12 (Java\/1.8.0_251)\n\n16:36:15.265 response time in milliseconds: 575.38\n1 < 200\n1 < Access-Control-Allow-Origin: *\n1 < Age: 4390\n1 < CF-Cache-Status: HIT\n1 < CF-RAY: 5fb4a0c95cd0c340-SIN\n1 < Cache-Control: max-age=14400\n1 < Connection: keep-alive\n1 < Content-Type: application\/json; charset=utf-8\n1 < Date: Wed, 02 Dec 2020 11:15:05 GMT\n1 < Etag: W\/\"406-ut0vzoCuidvyMf8arZpMpJ6ZRDw\"\n1 < Expect-CT: max-age=604800, report-uri=\"https:\/\/report-uri.cloudflare.com\/cdn-cgi\/beacon\/expect-ct\"\n1 < NEL: {\"report_to\":\"cf-nel\",\"max_age\":604800}\n1 < Report-To: {\"endpoints\":[{\"url\":\"https:\\\/\\\/a.nel.cloudflare.com\\\/report?s=vlIxCIOb3e7GgeQ%2FHnQFXndOPBBSCKfs1E223i1SnfdEHV1l2zIvVWu%2F3isYq%2BCc0jufP%2BhL3lVVJGAPYkvvsT4iGGH54c0J2QY%3D\"}],\"group\":\"cf-nel\",\"max_age\":604800}\n1 < Server: cloudflare\n1 < Set-Cookie: __cfduid=d93bd6564704873248a3ac89fe4c7e2381606907705; expires=Fri, 01-Jan-21 11:15:05 GMT; path=\/; domain=.reqres.in; HttpOnly; SameSite=Lax; Secure\n1 < Transfer-Encoding: chunked\n1 < Vary: Accept-Encoding\n1 < Via: 1.1 vegur\n1 < X-Powered-By: Express\n1 < cf-request-id: 06c4c2d1d70000c3408829e000000001\n{\"page\":2,\"per_page\":6,\"total\":12,\"total_pages\":2,\"data\":[{\"id\":7,\"email\":\"michael.lawson@reqres.in\",\"first_name\":\"Michael\",\"last_name\":\"Lawson\",\"avatar\":\"https:\/\/reqres.in\/img\/faces\/7-image.jpg\"},{\"id\":8,\"email\":\"lindsay.ferguson@reqres.in\",\"first_name\":\"Lindsay\",\"last_name\":\"Ferguson\",\"avatar\":\"https:\/\/reqres.in\/img\/faces\/8-image.jpg\"},{\"id\":9,\"email\":\"tobias.funke@reqres.in\",\"first_name\":\"Tobias\",\"last_name\":\"Funke\",\"avatar\":\"https:\/\/reqres.in\/img\/faces\/9-image.jpg\"},{\"id\":10,\"email\":\"byron.fields@reqres.in\",\"first_name\":\"Byron\",\"last_name\":\"Fields\",\"avatar\":\"https:\/\/reqres.in\/img\/faces\/10-image.jpg\"},{\"id\":11,\"email\":\"george.edwards@reqres.in\",\"first_name\":\"George\",\"last_name\":\"Edwards\",\"avatar\":\"https:\/\/reqres.in\/img\/faces\/11-image.jpg\"},{\"id\":12,\"email\":\"rachel.howell@reqres.in\",\"first_name\":\"Rachel\",\"last_name\":\"Howell\",\"avatar\":\"https:\/\/reqres.in\/img\/faces\/12-image.jpg\"}],\"support\":{\"url\":\"https:\/\/reqres.in\/#support-heading\",\"text\":\"To keep ReqRes free, contributions towards server costs are appreciated!\"}}","line":15}},{"name":"status 200","result":{"duration":21816,"status":"passed"},"match":{"location":"karate","arguments":[]},"keyword":"Then","line":16},{"name":"match response.page == \"##\"","result":{"duration":24938560,"status":"passed"},"match":{"location":"karate","arguments":[]},"keyword":"And","line":17}]}],"name":"src\/test\/java\/featurefiles\/karate09.feature","description":"Karate Test Suite 9\nREST API testing using URL & Path","id":"karate-test-suite-9","keyword":"Feature","uri":"src\/test\/java\/featurefiles\/karate09.feature"}]