[{"line":1,"elements":[{"line":3,"name":"Calling test case 01","description":"","id":"calling-test-case-01","type":"scenario","keyword":"Scenario","steps":[{"name":"def result = call read('calledfeature01.feature')","result":{"duration":1733227967,"status":"passed"},"match":{"location":"karate","arguments":[]},"keyword":"*","line":4},{"name":"\/Work\/GradleWorkspace\/src\/test\/java\/featurefiles\/calledfeature01.feature","result":{"duration":0,"status":"passed"},"match":{"location":"karate","arguments":[]},"keyword":"","line":4},{"name":"url \"https:\/\/reqres.in\"","result":{"duration":9219454,"status":"passed"},"match":{"location":"karate","arguments":[]},"keyword":"> Given","line":5,"doc_string":{"content_type":"","value":"17:06:54.872 skipping bootstrap configuration: could not find or read file: classpath:karate-config.js","line":5}},{"name":"path \"\/api\/users?page=2\"","result":{"duration":4379998,"status":"passed"},"match":{"location":"karate","arguments":[]},"keyword":"> And","line":6},{"name":"method GET","result":{"duration":1231533489,"status":"passed"},"match":{"location":"karate","arguments":[]},"keyword":"> When","line":7,"doc_string":{"content_type":"","value":"17:06:56.002 request:\n1 > GET https:\/\/reqres.in\/api\/users%3Fpage=2\n1 > Accept-Encoding: gzip,deflate\n1 > Connection: Keep-Alive\n1 > Host: reqres.in\n1 > User-Agent: Apache-HttpClient\/4.5.12 (Java\/1.8.0_251)\n\n17:06:56.553 response time in milliseconds: 533.46\n1 < 200\n1 < Access-Control-Allow-Origin: *\n1 < Age: 3785\n1 < CF-Cache-Status: HIT\n1 < CF-RAY: 5fb4cdbda946c32c-SIN\n1 < Cache-Control: max-age=14400\n1 < Connection: keep-alive\n1 < Content-Type: application\/json; charset=utf-8\n1 < Date: Wed, 02 Dec 2020 11:45:47 GMT\n1 < Etag: W\/\"2c1-N6Rqerxquq2kgQhL51EiSg4x0R8\"\n1 < Expect-CT: max-age=604800, report-uri=\"https:\/\/report-uri.cloudflare.com\/cdn-cgi\/beacon\/expect-ct\"\n1 < NEL: {\"report_to\":\"cf-nel\",\"max_age\":604800}\n1 < Report-To: {\"endpoints\":[{\"url\":\"https:\\\/\\\/a.nel.cloudflare.com\\\/report?s=f6xrzQFrADAwt0QYExkU7Ux1Axf83jSYIva50iY%2F9x%2FNvAtb021%2FsLxMLPgsQovvjK0cmDnocRlnAieDd3QKaITOuXERP%2FHm9%2FE%3D\"}],\"group\":\"cf-nel\",\"max_age\":604800}\n1 < Server: cloudflare\n1 < Set-Cookie: __cfduid=d711851134aa2aa69afbb5b027d72591a1606909547; expires=Fri, 01-Jan-21 11:45:47 GMT; path=\/; domain=.reqres.in; HttpOnly; SameSite=Lax; Secure\n1 < Transfer-Encoding: chunked\n1 < Vary: Accept-Encoding\n1 < Via: 1.1 vegur\n1 < X-Powered-By: Express\n1 < cf-request-id: 06c4deea870000c32cfe0c3000000001\n{\"page\":1,\"per_page\":6,\"total\":12,\"total_pages\":2,\"data\":[{\"id\":1,\"name\":\"cerulean\",\"year\":2000,\"color\":\"#98B2D1\",\"pantone_value\":\"15-4020\"},{\"id\":2,\"name\":\"fuchsia rose\",\"year\":2001,\"color\":\"#C74375\",\"pantone_value\":\"17-2031\"},{\"id\":3,\"name\":\"true red\",\"year\":2002,\"color\":\"#BF1932\",\"pantone_value\":\"19-1664\"},{\"id\":4,\"name\":\"aqua sky\",\"year\":2003,\"color\":\"#7BC4C4\",\"pantone_value\":\"14-4811\"},{\"id\":5,\"name\":\"tigerlily\",\"year\":2004,\"color\":\"#E2583E\",\"pantone_value\":\"17-1456\"},{\"id\":6,\"name\":\"blue turquoise\",\"year\":2005,\"color\":\"#53B0AE\",\"pantone_value\":\"15-5217\"}],\"support\":{\"url\":\"https:\/\/reqres.in\/#support-heading\",\"text\":\"To keep ReqRes free, contributions towards server costs are appreciated!\"}}","line":7}},{"name":"status 200","result":{"duration":24041,"status":"passed"},"match":{"location":"karate","arguments":[]},"keyword":"> Then","line":8},{"name":"match response.page == 1","result":{"duration":24026321,"status":"passed"},"match":{"location":"karate","arguments":[]},"keyword":"> And","line":9},{"name":"print result","result":{"duration":2854255,"status":"passed"},"match":{"location":"karate","arguments":[]},"keyword":"*","line":5,"doc_string":{"content_type":"","value":"17:06:56.642 [print] {\n  \"__arg\": null,\n  \"responseType\": \"json\",\n  \"responseHeaders\": {\n    \"Date\": [\n      \"Wed, 02 Dec 2020 11:45:47 GMT\"\n    ],\n    \"Content-Type\": [\n      \"application\/json; charset=utf-8\"\n    ],\n    \"Transfer-Encoding\": [\n      \"chunked\"\n    ],\n    \"Connection\": [\n      \"keep-alive\"\n    ],\n    \"Set-Cookie\": [\n      \"__cfduid=d711851134aa2aa69afbb5b027d72591a1606909547; expires=Fri, 01-Jan-21 11:45:47 GMT; path=\/; domain=.reqres.in; HttpOnly; SameSite=Lax; Secure\"\n    ],\n    \"X-Powered-By\": [\n      \"Express\"\n    ],\n    \"Access-Control-Allow-Origin\": [\n      \"*\"\n    ],\n    \"Etag\": [\n      \"W\/\\\"2c1-N6Rqerxquq2kgQhL51EiSg4x0R8\\\"\"\n    ],\n    \"Via\": [\n      \"1.1 vegur\"\n    ],\n    \"Cache-Control\": [\n      \"max-age=14400\"\n    ],\n    \"CF-Cache-Status\": [\n      \"HIT\"\n    ],\n    \"Age\": [\n      \"3785\"\n    ],\n    \"cf-request-id\": [\n      \"06c4deea870000c32cfe0c3000000001\"\n    ],\n    \"Expect-CT\": [\n      \"max-age=604800, report-uri=\\\"https:\/\/report-uri.cloudflare.com\/cdn-cgi\/beacon\/expect-ct\\\"\"\n    ],\n    \"Report-To\": [\n      \"{\\\"endpoints\\\":[{\\\"url\\\":\\\"https:\\\\\/\\\\\/a.nel.cloudflare.com\\\\\/report?s=f6xrzQFrADAwt0QYExkU7Ux1Axf83jSYIva50iY%2F9x%2FNvAtb021%2FsLxMLPgsQovvjK0cmDnocRlnAieDd3QKaITOuXERP%2FHm9%2FE%3D\\\"}],\\\"group\\\":\\\"cf-nel\\\",\\\"max_age\\\":604800}\"\n    ],\n    \"NEL\": [\n      \"{\\\"report_to\\\":\\\"cf-nel\\\",\\\"max_age\\\":604800}\"\n    ],\n    \"Vary\": [\n      \"Accept-Encoding\"\n    ],\n    \"Server\": [\n      \"cloudflare\"\n    ],\n    \"CF-RAY\": [\n      \"5fb4cdbda946c32c-SIN\"\n    ]\n  },\n  \"responseTime\": 533,\n  \"response\": {\n    \"per_page\": 6,\n    \"total\": 12,\n    \"data\": [\n      {\n        \"color\": \"#98B2D1\",\n        \"year\": 2000,\n        \"name\": \"cerulean\",\n        \"id\": 1,\n        \"pantone_value\": \"15-4020\"\n      },\n      {\n        \"color\": \"#C74375\",\n        \"year\": 2001,\n        \"name\": \"fuchsia rose\",\n        \"id\": 2,\n        \"pantone_value\": \"17-2031\"\n      },\n      {\n        \"color\": \"#BF1932\",\n        \"year\": 2002,\n        \"name\": \"true red\",\n        \"id\": 3,\n        \"pantone_value\": \"19-1664\"\n      },\n      {\n        \"color\": \"#7BC4C4\",\n        \"year\": 2003,\n        \"name\": \"aqua sky\",\n        \"id\": 4,\n        \"pantone_value\": \"14-4811\"\n      },\n      {\n        \"color\": \"#E2583E\",\n        \"year\": 2004,\n        \"name\": \"tigerlily\",\n        \"id\": 5,\n        \"pantone_value\": \"17-1456\"\n      },\n      {\n        \"color\": \"#53B0AE\",\n        \"year\": 2005,\n        \"name\": \"blue turquoise\",\n        \"id\": 6,\n        \"pantone_value\": \"15-5217\"\n      }\n    ],\n    \"page\": 1,\n    \"total_pages\": 2,\n    \"support\": {\n      \"text\": \"To keep ReqRes free, contributions towards server costs are appreciated!\",\n      \"url\": \"https:\/\/reqres.in\/#support-heading\"\n    }\n  },\n  \"requestTimeStamp\": 1606909016002,\n  \"responseStatus\": 200,\n  \"__loop\": -1,\n  \"responseCookies\": {\n    \"__cfduid\": {\n      \"name\": \"__cfduid\",\n      \"value\": \"d711851134aa2aa69afbb5b027d72591a1606909547\",\n      \"domain\": \"reqres.in\",\n      \"path\": \"\/\",\n      \"expires\": \"1609501547000\",\n      \"persistent\": \"true\",\n      \"secure\": \"true\"\n    }\n  }\n}","line":5}},{"name":"match result.responseType == \"json\"","result":{"duration":4144926,"status":"passed"},"match":{"location":"karate","arguments":[]},"keyword":"*","line":6},{"name":"match result.responseHeaders.Transfer-Encoding[0] == \"chunked\"","result":{"duration":5584297,"status":"passed"},"match":{"location":"karate","arguments":[]},"keyword":"*","line":7},{"name":"match result.response.data[0].name == \"cerulean\"","result":{"duration":3760707,"status":"passed"},"match":{"location":"karate","arguments":[]},"keyword":"*","line":8}]}],"name":"src\/test\/java\/featurefiles\/callingfeature01.feature","description":"Calling Test Suite 1","id":"calling-test-suite-1","keyword":"Feature","uri":"src\/test\/java\/featurefiles\/callingfeature01.feature"}]